{
  "name": "d3-floorplan",
  "version": "1.0.0",
  "description": "Floorplan Playground",
  "main": "index.js",
  "scripts": {
    "start": "nodemon index.js",
    "build-watch": "webpack --watch",
    "test": "echo \"Error: no test specified\" && exit 1"
  },
  "repository": {
    "type": "git",
    "url": "no"
  },
  "author": "Ehsan Basri",
  "license": "ISC",
  "dependencies": {
    "@fortawesome/fontawesome-svg-core": "^1.2.0-14",
    "@fortawesome/free-solid-svg-icons": "^5.1.0-11",
    "@fortawesome/react-fontawesome": "^0.1.0-11",
    "axios": "^0.18.0",
    "babel-core": "^6.23.1",
    "babel-loader": "^6.4.0",
    "babel-plugin-transform-async-to-generator": "^6.24.1",
    "babel-plugin-transform-class-properties": "^6.24.1",
    "babel-plugin-transform-decorators-legacy": "^1.3.4",
    "babel-plugin-transform-object-rest-spread": "^6.23.0",
    "babel-polyfill": "^6.26.0",
    "babel-preset-env": "^1.6.1",
    "babel-preset-stage-1": "^6.24.1",
    "body-parser": "^1.18.3",
    "cors": "^2.8.4",
    "express": "^4.16.3",
    "method-override": "^3.0.0",
    "mime": "^2.3.1",
    "moment": "^2.22.2",
    "multer": "^1.3.1",
    "pg": "^7.4.3",
    "pg-hstore": "^2.3.2",
    "react": "^16.3.1",
    "react-bootstrap-table": "^4.3.1",
    "react-custom-scrollbars": "^4.2.1",
    "react-d3": "^0.4.0",
    "react-data-components": "^1.2.0",
    "react-dom": "^16.3.1",
    "react-fine-uploader": "^1.1.0",
    "react-redux": "^5.0.4",
    "react-table": "^6.8.6",
    "redux": "^3.7.2",
    "redux-thunk": "^2.2.0",
    "sequelize": "^4.38.0",
    "sequelize-cli": "^4.0.0",
    "webpack": "^2.4.1"
  },
  "devDependencies": {
    "babel-jest": "^19.0.0",
    "babel-preset-es2015": "^6.24.1",
    "babel-preset-react": "^6.24.1",
    "connect-livereload": "~0.3.2",
    "cssnano": "~2.1.0",
    "enzyme": "^3.3.0",
    "eslint": "^3.19.0",
    "eslint-config-airbnb": "^16.1.0",
    "eslint-plugin-import": "^2.12.0",
    "eslint-plugin-jsx-a11y": "^6.0.3",
    "eslint-plugin-react": "^7.9.1",
    "grunt": "~0.4.5",
    "grunt-bg-shell": "~2.3.1",
    "grunt-contrib-watch": "~0.6.1",
    "grunt-postcss": "~0.5.5",
    "grunt-sass": "~1.0.0",
    "grunt-webpack": "^2.0.1",
    "jest": "^19.0.2",
    "jest-cli": "^19.0.2",
    "load-grunt-tasks": "~3.2.0",
    "pixrem": "~1.3.1",
    "react-router-dom": "^4.2.2",
    "react-test-renderer": "^15.6.2",
    "redux-logger": "^3.0.6",
    "redux-mock-store": "^1.4.0",
    "run-func": "^1.0.2",
    "time-grunt": "~1.2.1"
  }
}
