<?xml version="1.0" encoding="UTF-8"?>
<svg width="32px" height="32px" viewBox="0 0 32 32" version="1.1" xmlns="http://www.w3.org/2000/svg" xmlns:xlink="http://www.w3.org/1999/xlink">
    <!-- Generator: Sketch 55.2 (78181) - https://sketchapp.com -->
    <title>ic_kitchendisplay/inactive@2x</title>
    <desc>Created with Sketch.</desc>
    <g id="ic_kitchendisplay/inactive" stroke="none" stroke-width="1" fill="none" fill-rule="evenodd">
        <g id="active">
            <rect id="path-1" x="0" y="0" width="32" height="32"></rect>
            <rect id="Rectangle" stroke="#AEAFB6" stroke-width="2" stroke-linejoin="round" x="4" y="4" width="24" height="24" rx="4"></rect>
            <path d="M10,10 L10,22" id="Line-2" stroke="#AEAFB6" stroke-width="2" stroke-linecap="round" stroke-linejoin="round"></path>
            <path d="M16,10 L16,19" id="Line-2-Copy" stroke="#AEAFB6" stroke-width="2" stroke-linecap="round" stroke-linejoin="round"></path>
            <path d="M22,10 L22,21" id="Line-2-Copy-2" stroke="#AEAFB6" stroke-width="2" stroke-linecap="round" stroke-linejoin="round"></path>
        </g>
    </g>
</svg>