-r ./base.txt

Werkzeug==0.16.0  # https://github.com/pallets/werkzeug
ipdb==0.12.3  # https://github.com/gotcha/ipdb
Sphinx==2.2.2  # https://github.com/sphinx-doc/sphinx
psycopg2==2.8.3 --no-binary psycopg2  # https://github.com/psycopg/psycopg2

# Testing
# ------------------------------------------------------------------------------
mypy==0.750  # https://github.com/python/mypy
pytest==5.3.1  # https://github.com/pytest-dev/pytest
pytest-sugar==0.9.2  # https://github.com/Frozenball/pytest-sugar

# Code quality
# ------------------------------------------------------------------------------
flake8==3.5.0  # https://github.com/PyCQA/flake8
coverage==4.5.1  # https://github.com/nedbat/coveragepy

# Django
# ------------------------------------------------------------------------------
factory-boy==2.10.0  # https://github.com/FactoryBoy/factory_boy
django-test-plus==1.0.22  # https://github.com/revsys/django-test-plus

django-debug-toolbar==2.1  # https://github.com/jazzband/django-debug-toolbar
django-debug-toolbar-force==0.1.4  # https://github.com/barseghyanartur/django-debug-toolbar-force
django-extensions==2.2.5  # https://github.com/django-extensions/django-extensions
django-coverage-plugin==1.6.0  # https://github.com/nedbat/django_coverage_plugin
pytest-django==3.7.0  # https://github.com/pytest-dev/pytest-django

model-mommy==1.5.1
django-pdb==0.6.1
django-silk==3.0.1
coreapi-cli==1.0.9
